{
  "schemaVersion": 1,
  "id": "libjf-unsafe-v0-testmod",
  "name": "LibJF Unsafe",
  "version": "1.0",
  "environment": "*",
  "entrypoints": {
    "libjf:asm": [
      "io.gitlab.jfronny.libjf.unsafe.test.AsmTest"
    ],
    "libjf:early": [
      "io.gitlab.jfronny.libjf.unsafe.test.UnsafeEntryTest"
    ]
  },
  "custom": {
    "libjf": {
      "asm.export": true,
      "asm.log": true
    },
    "modmenu": {
      "parent": "libjf-testmod"
    }
  }
}