{
  "schemaVersion": 1,
  "id": "libjf-translate-v1",
  "name": "LibJF Translate",
  "version": "${version}",
  "environment": "*",
  "license": "MIT",
  "contact": {
    "email": "projects.contact@frohnmeyer-wds.de",
    "homepage": "https://jfronny.gitlab.io",
    "issues": "https://git.frohnmeyer-wds.de/JfMods/LibJF/issues",
    "sources": "https://git.frohnmeyer-wds.de/JfMods/LibJF"
  },
  "authors": [
    "JFronny"
  ],
  "depends": {
    "fabricloader": ">=0.12.0",
    "minecraft": "*",
    "libjf-base": ">=${version}"
  },
  "entrypoints": {
    "libjf:config": ["io.gitlab.jfronny.libjf.translate.impl.TranslateConfig"]
  },
  "custom": {
    "modmenu": {
      "parent": "libjf",
      "badges": ["library"]
    }
  }
}
